<?xml version="1.0" encoding="UTF-8" standalone="no"?>
<svg width="16px" height="16px" viewBox="0 0 16 16" version="1.1" xmlns="http://www.w3.org/2000/svg" xmlns:xlink="http://www.w3.org/1999/xlink">
    <!-- Generator: Sketch 39.1 (31720) - http://www.bohemiancoding.com/sketch -->
    <title>Tick</title>
    <desc>Created with Sketch.</desc>
    <defs></defs>
    <g id="Page-1" stroke="none" stroke-width="1" fill="none" fill-rule="evenodd">
        <g id="Desktop-–-Select-Village" transform="translate(-204.000000, -588.000000)">
            <g id="Stepper-Copy-4" transform="translate(120.000000, 571.000000)">
                <g id="Step-01">
                    <g id="copy" transform="translate(85.000000, 15.000000)">
                        <g id="Tick" transform="translate(0.000000, 3.000000)">
                            <path d="M7,14 C3.14075152,14 -5.51074338e-14,10.8592485 -5.51074338e-14,7 C-5.51074338e-14,3.14075152 3.14075152,3.55271368e-15 7,3.55271368e-15 C10.8592485,3.55271368e-15 14,3.14075152 14,7 C14,10.8592485 10.8592485,14 7,14 L7,14 Z" id="Fill-1" stroke="#7FA022"></path>
                            <path d="M10.0575,4.16890337 L5.87096939,8.3542095 L3.98035714,6.46359725 C3.75688776,6.23890337 3.3919898,6.23890337 3.16852041,6.46359725 C2.94382653,6.68829113 2.94382653,7.05074011 3.16852041,7.27543399 L5.46443878,9.57135235 C5.57678571,9.68369929 5.72403061,9.74002582 5.87096939,9.74002582 C6.01790816,9.74002582 6.16515306,9.68369929 6.27627551,9.57135235 L10.8681122,4.97951562 C11.0931122,4.75482174 11.0931122,4.39237276 10.8681122,4.16767888 C10.6434184,3.94390337 10.2809694,3.94390337 10.0575,4.16890337 L10.0575,4.16890337 Z" id="Fill-2" fill="#7FA022"></path>
                        </g>
                    </g>
                </g>
            </g>
        </g>
    </g>
</svg>