<?xml version="1.0" encoding="UTF-8" standalone="no"?>
<svg width="16px" height="16px" viewBox="0 0 16 16" version="1.1" xmlns="http://www.w3.org/2000/svg" xmlns:xlink="http://www.w3.org/1999/xlink">
    <!-- Generator: Sketch 39.1 (31720) - http://www.bohemiancoding.com/sketch -->
    <title>icon-circle</title>
    <desc>Created with Sketch.</desc>
    <defs></defs>
    <g id="Page-1" stroke="none" stroke-width="1" fill="none" fill-rule="evenodd">
        <g id="Desktop-–-Select-Village" transform="translate(-802.000000, -588.000000)" stroke="#1B405F">
            <g id="Stepper-Copy-4" transform="translate(120.000000, 571.000000)">
                <g id="Step-03-Copy" transform="translate(598.000000, 0.000000)">
                    <g id="copy" transform="translate(85.000000, 15.000000)">
                        <g id="icon-circle" transform="translate(0.000000, 3.000000)">
                            <path d="M7,14 C3.14075152,14 5.5067062e-14,10.8592485 5.5067062e-14,7 C5.5067062e-14,3.14075152 3.14075152,-3.55271368e-15 7,-3.55271368e-15 C10.8592485,-3.55271368e-15 14,3.14075152 14,7 C14,10.8592485 10.8592485,14 7,14 L7,14 Z" id="Fill-1"></path>
                        </g>
                    </g>
                </g>
            </g>
        </g>
    </g>
</svg>