<?xml version="1.0" encoding="UTF-8" standalone="no"?>
<svg width="62px" height="62px" viewBox="0 0 62 62" version="1.1" xmlns="http://www.w3.org/2000/svg" xmlns:xlink="http://www.w3.org/1999/xlink">
    <!-- Generator: Sketch 39.1 (31720) - http://www.bohemiancoding.com/sketch -->
    <title>single-bed-icon</title>
    <desc>Created with Sketch.</desc>
    <defs></defs>
    <g id="Page-1" stroke="none" stroke-width="1" fill="none" fill-rule="evenodd">
        <g id="single-bed-icon" fill="#5F615E">
            <g id="Page-1" transform="translate(11.000000, 14.000000)">
                <path d="M38.5735294,20.3488372 L36.5514706,20.3488372 L36.5514706,4.06325581 C36.5514706,2.94406977 35.6633824,2.03488372 34.5229412,2.03488372 L6.07264706,2.03488372 C4.95080882,2.03488372 4.04411765,2.94406977 4.04411765,4.06325581 L4.04411765,20.3488372 L2.02205882,20.3488372 L2.02205882,4.06976744 C2.02205882,1.82162791 3.82007353,0 6.07264706,0 L34.5229412,0 C36.7601471,0 38.5735294,1.80616279 38.5735294,4.06976744 L38.5735294,20.3488372 Z M29.2867647,20.3488372 L27.2647059,20.3488372 L27.2647059,16.275814 C27.2647059,15.1533721 26.3798529,14.244186 25.2361765,14.244186 L15.1388235,14.244186 C14.0169853,14.244186 13.1102941,15.1436047 13.1102941,16.275814 L13.1102941,20.3488372 L11.0882353,20.3488372 L11.0882353,16.2790698 C11.0882353,14.0309302 12.8983824,12.2093023 15.1258824,12.2093023 L25.2491176,12.2093023 C27.4798529,12.2093023 29.2867647,14.0154651 29.2867647,16.2790698 L29.2867647,20.3488372 Z" id="Fill-1"></path>
                <path d="M10.1102941,30.5232558 L10.1102941,33.5853488 C10.1102941,34.1412791 9.67433824,34.5930233 9.10897059,34.5930233 L5.04544118,34.5930233 C4.49301471,34.5930233 4.04411765,34.1543023 4.04411765,33.5853488 L4.04411765,30.5232558 L0.994852941,30.5232558 C0.445661765,30.5232558 0,30.0593023 0,29.5245349 L0,19.3126744 C0,18.7624419 0.470735294,18.3139535 0.994852941,18.3139535 L39.6007353,18.3139535 C40.1499265,18.3139535 40.5955882,18.777907 40.5955882,19.3126744 L40.5955882,29.5245349 C40.5955882,30.0747674 40.1248529,30.5232558 39.6007353,30.5232558 L36.5514706,30.5232558 L36.5514706,33.5853488 C36.5514706,34.1412791 36.1155147,34.5930233 35.5501471,34.5930233 L31.4866176,34.5930233 C30.9341912,34.5930233 30.4852941,34.1543023 30.4852941,33.5853488 L30.4852941,30.5232558 L10.1102941,30.5232558 Z M34.5294118,30.5232558 L34.5294118,32.5581395 L32.5073529,32.5581395 L32.5073529,30.5232558 L34.5294118,30.5232558 Z M6.06617647,30.5232558 L6.06617647,32.5581395 L8.08823529,32.5581395 L8.08823529,30.5232558 L6.06617647,30.5232558 Z M38.5735294,20.3488372 L38.5735294,28.4883721 L2.02205882,28.4883721 L2.02205882,20.3488372 L38.5735294,20.3488372 Z" id="Fill-2"></path>
            </g>
        </g>
    </g>
</svg>